{
  "type": "object",
  "required": ["_embedded"],
  "properties": {
    "_embedded": {
      "type": "object",
      "required": ["errors"],
      "properties": {
        "errors": {
          "type": "array",
          "items": {
            "$ref": "error_schema.json"
          }
        }
      }
    }
  }
}
